﻿1798, 6
﻿1812, 270
﻿ACE001, 3
﻿ADH001, 120
﻿ALB004, 95
﻿ALOH001, 30
﻿AMI003, 1296
﻿AMO001, 4000
﻿AMO005, 1500
﻿AMO015, 48
﻿AUT001, 4
﻿AZI003, 180
﻿BLO002, 450
﻿BOT007, 800
﻿CEF008, 1500
﻿CETR001, 120
﻿CHL026, 5
﻿CHL027, 100
﻿CID030, 7
﻿CIT001, 25
﻿CLE001, 1
﻿CLO003, 30
﻿COT004, 18
﻿CREP030, 350
﻿CYCL01, 5000
﻿DIL002, 1
﻿DYR030, 10
﻿ENA002, 4900
﻿END033, 20
﻿END034, 20
﻿END035, 20
﻿END036, 20
﻿FLAM01A, 1600
﻿FLU004, 500
﻿FOR030, 1
﻿GAU011, 4
﻿GAU030, 120
﻿GAU031, 15
﻿GEN001, 480
﻿GEN002, 1
﻿GIE001, 2
﻿GLO001, 27000
﻿GLO015, 50
﻿GLO016, 75
﻿GLO030, 48
﻿GLU014, 140
﻿HAL001, 5
﻿HAN002, 11
﻿HYD012, 1
﻿IBU003, 30
﻿INSU030, 100
﻿IVC006, 600
﻿IVC009, 200
﻿LAC001, 48
﻿LTEST97, 50
﻿LY001, 2
﻿MAL007, 75
﻿MET001, 192
﻿MET004, 2000
﻿MET021, 3
﻿MET028, 1
﻿MYO030, 1195
﻿NE0044, 1320
﻿NEB030, 32
﻿NEB032, 80
﻿NEE002, 2800
﻿NEE003, 2600
﻿NEU002, 1
﻿NIF001, 11000
﻿NOR030, 245
﻿NU030, 500
﻿PAR002, 7000
﻿PEN002, 150
﻿PHY030, 784
﻿POP014, 36
﻿PRO001, 1
﻿PRO018, 50
﻿RAN001, 480
﻿REL018, 40
﻿REM011, 26
﻿RIN001, 2
﻿SOA030, 7
﻿SOD018, 36
﻿SOL030, 227
﻿SUC010, 20
﻿SUR005, 1950
﻿SYR002, 900
﻿SYR017, 2700
﻿SYR019, 1600
﻿SYR021, 140
﻿THE002, 80
﻿TRA005, 320
﻿TUS010, 52
﻿TUS012, 52
﻿TUS018, 52
﻿URI001, 240
﻿VDR004, 50
﻿WAT001, 200
﻿XRF001, 4
﻿XRY18, 1
﻿XRY29, 100
﻿XRY30, 300
﻿XRY31, 100
﻿ZIN004, 23
